…
Some users (@LSeb, @Lul) seem to have left positive comments while others (@Founa) don't seem too fond of the offering. Some ambiguous comments seem to be written in foreign languages (@Poot), while other users have written multiple comments by mistake (@Lul). 


### Turning words into numbers 101: using sentiment dictionaries

One basic way we could turn words into numbers is by applying a sentiment lexicon. A sentiment lexicon is simply a way to assign a score (or a label) to a word, based on its connotation (most positive +5 to most negative -5). This is a snippet of the 'Afinn' lexicon:


```r
#> # A tibble: 2,477 x 2
#>    word       value
#>    <chr>      <dbl>
#>  1 abandon       -2
#>  2 abandoned     -2
#>  3 abandons      -2
#>  4 abducted      -2
#>  5 abduction     -2
#>  6 abductions    -2
#>  7 abhor         -3
#>  8 abhorred      -3
#>  9 abhorrent     -3
#> 10 abhors        -3
#> # … with 2,467 more rows
…
